{
    "pt_minimum": 1000,
    "pt_maximum": 500000,
    "abs_eta_maximum": 2.5,
    "d0_maximum": 1,
    "eta_maximum": 50000,
    "ptrel_maximum": 5000,
    "isopt_maximum": 40,
    "eop_maximum": 30,
    "rhad1_maximum": 4,
    "wstot_maximum": 20,
    "rphi_maximum": 2,
    "reta_maximum": 2,
    "deta1_maximum": 10,
    "dpop_maximum": 5
}
