{
    "jet_collection": "AntiKt4UFOCSSKJets",
    "calibration": { "file": "fragments/pflow-calibration.json" },
    "selection": { "file": "fragments/pflow-selection.json" },
    "vertex_collection": "PrimaryVertices",
    "dl2_configs": [],
    "variables": { "file": "fragments/ufo-variables.json" },
    "tracks": [{
        "n_to_save": 40,
        "selection": { "file": "fragments/r22default-track-cuts.json" },
        "sort_order": "d0_significance",
        "input_name": "GhostTrack",
        "output_name": "tracks",
        "variables": { "file": "fragments/ufo-track-variables.json"},
        "ip_prefix": "btagIp_"   
    }],
    "truths" : [
        { "file": "fragments/overlap-leptons-TRUTH3.json" },
        {
            "association": {
                "file": "fragments/baseline-truth-kinematics.json",
                "particles": "promptLepton"
            },
            "decorate_summary": true
        }
    ],
    "decorate": {
        "lepton_decay_label": true
    }
}
