############################################
# Z', alt. Z', dijet, V+jets (high-pT extrapolation - Tom Dingley)
############################################

# nominal Z' sample, used for tracking and jet variations within the TDD
mc20_13TeV.800030.Py8EG_A14NNPDF23LO_flatpT_Zprime_Extended.deriv.DAOD_FTAG1.e7954_s3681_r13144_p5981
#mc23_13p6TeV.800030.Py8EG_A14NNPDF23LO_flatpT_Zprime_Extended.deriv.DAOD_FTAG1.e8514_s4162_r14622_p5981
#mc23_13p6TeV.800030.Py8EG_A14NNPDF23LO_flatpT_Zprime_Extended.deriv.DAOD_FTAG1.e8514_s4159_r14799_p5981

# alternative parton shower Z' samples, Herwig7.2 & Pythia8
#mc20_13TeV.521296.MGPy8EG_NNPDF30NLOME_A14_ZPrime_flatpT.deriv.DAOD_FTAG1.e8555_s3797_r13144_p5981
#mc20_13TeV.525819.MGH7EG_NNPDF30NLOME_Zprime_flatpT_Showering.deriv.DAOD_FTAG1.e8555_s3797_r13144_p5981
#mc23_13p6TeV.521296.MGPy8EG_NNPDF30NLOME_A14_ZPrime_flatpT.deriv.DAOD_FTAG1.e8551_s4162_r14622_p5981
#mc23_13p6TeV.521296.MGPy8EG_NNPDF30NLOME_A14_ZPrime_flatpT.deriv.DAOD_FTAG1.e8551_s4159_r14799_p5981
#mc23_13p6TeV.525819.MGH7EG_NNPDF30NLOME_Zprime_flatpT_Showering.deriv.DAOD_FTAG1.e8551_s4162_r14622_p5981
#mc23_13p6TeV.525819.MGH7EG_NNPDF30NLOME_Zprime_flatpT_Showering.deriv.DAOD_FTAG1.e8551_s4159_r14799_p5981

###################
#V+jets samples for generator systematic
###################

#mc20_13TeV.506193.MGPy8EG_Zee_FxFx_3jets_HT2bias_BFilter.deriv.DAOD_FTAG1.e8382_s3681_r13145_p5981
#mc20_13TeV.506194.MGPy8EG_Zee_FxFx_3jets_HT2bias_CFilterBVeto.deriv.DAOD_FTAG1.e8382_s3681_r13145_p5981
#mc20_13TeV.506195.MGPy8EG_Zee_FxFx_3jets_HT2bias_CVetoBVeto.deriv.DAOD_FTAG1.e8382_s3681_r13145_p5981
#mc20_13TeV.506196.MGPy8EG_Zmumu_FxFx_3jets_HT2bias_BFilter.deriv.DAOD_FTAG1.e8382_s3681_r13145_p5981
#mc20_13TeV.506197.MGPy8EG_Zmumu_FxFx_3jets_HT2bias_CFilterBVeto.deriv.DAOD_FTAG1.e8382_s3681_r13145_p5981
#mc20_13TeV.506198.MGPy8EG_Zmumu_FxFx_3jets_HT2bias_CVetoBVeto.deriv.DAOD_FTAG1.e8382_s3681_r13145_p5981
#mc20_13TeV.506193.MGPy8EG_Zee_FxFx_3jets_HT2bias_BFilter.deriv.DAOD_FTAG1.e8382_s3681_r13144_p5981
#mc20_13TeV.506194.MGPy8EG_Zee_FxFx_3jets_HT2bias_CFilterBVeto.deriv.DAOD_FTAG1.e8382_s3681_r13144_p5981
#mc20_13TeV.506195.MGPy8EG_Zee_FxFx_3jets_HT2bias_CVetoBVeto.deriv.DAOD_FTAG1.e8382_s3681_r13144_p5981
#mc20_13TeV.506196.MGPy8EG_Zmumu_FxFx_3jets_HT2bias_BFilter.deriv.DAOD_FTAG1.e8382_s3681_r13144_p5981
#mc20_13TeV.506197.MGPy8EG_Zmumu_FxFx_3jets_HT2bias_CFilterBVeto.deriv.DAOD_FTAG1.e8382_s3681_r13144_p5981
#mc20_13TeV.506198.MGPy8EG_Zmumu_FxFx_3jets_HT2bias_CVetoBVeto.deriv.DAOD_FTAG1.e8382_s3681_r13144_p5981
#mc20_13TeV.506193.MGPy8EG_Zee_FxFx_3jets_HT2bias_BFilter.deriv.DAOD_FTAG1.e8382_s3681_r13167_p5981
#mc20_13TeV.506194.MGPy8EG_Zee_FxFx_3jets_HT2bias_CFilterBVeto.deriv.DAOD_FTAG1.e8382_s3681_r13167_p5981
#mc20_13TeV.506195.MGPy8EG_Zee_FxFx_3jets_HT2bias_CVetoBVeto.deriv.DAOD_FTAG1.e8382_s3681_r13167_p5981
#mc20_13TeV.506196.MGPy8EG_Zmumu_FxFx_3jets_HT2bias_BFilter.deriv.DAOD_FTAG1.e8382_s3681_r13167_p5981
#mc20_13TeV.506197.MGPy8EG_Zmumu_FxFx_3jets_HT2bias_CFilterBVeto.deriv.DAOD_FTAG1.e8382_s3681_r13167_p5981
#mc20_13TeV.506198.MGPy8EG_Zmumu_FxFx_3jets_HT2bias_CVetoBVeto.deriv.DAOD_FTAG1.e8382_s3681_r13167_p5981
#mc20_13TeV.508979.MGPy8EG_Wenu_FxFx_3jets_HT2bias_BFilter.deriv.DAOD_FTAG1.e8382_s3681_r13167_p5981
#mc20_13TeV.508979.MGPy8EG_Wenu_FxFx_3jets_HT2bias_BFilter.deriv.DAOD_FTAG1.e8382_s3681_r13145_p5981
#mc20_13TeV.508979.MGPy8EG_Wenu_FxFx_3jets_HT2bias_BFilter.deriv.DAOD_FTAG1.e8382_s3681_r13144_p5981
#mc20_13TeV.508980.MGPy8EG_Wenu_FxFx_3jets_HT2bias_CFilterBVeto.deriv.DAOD_FTAG1.e8382_s3681_r13167_p5981
#mc20_13TeV.508980.MGPy8EG_Wenu_FxFx_3jets_HT2bias_CFilterBVeto.deriv.DAOD_FTAG1.e8382_s3681_r13145_p5981
#mc20_13TeV.508980.MGPy8EG_Wenu_FxFx_3jets_HT2bias_CFilterBVeto.deriv.DAOD_FTAG1.e8382_s3681_r13144_p5981
#mc20_13TeV.508981.MGPy8EG_Wenu_FxFx_3jets_HT2bias_CVetoBVeto.deriv.DAOD_FTAG1.e8382_s3681_r13167_p5981
#mc20_13TeV.508981.MGPy8EG_Wenu_FxFx_3jets_HT2bias_CVetoBVeto.deriv.DAOD_FTAG1.e8382_s3681_r13145_p5981
#mc20_13TeV.508981.MGPy8EG_Wenu_FxFx_3jets_HT2bias_CVetoBVeto.deriv.DAOD_FTAG1.e8382_s3681_r13144_p5981
#mc20_13TeV.508982.MGPy8EG_Wmunu_FxFx_3jets_HT2bias_BFilter.deriv.DAOD_FTAG1.e8382_s3681_r13167_p5981
#mc20_13TeV.508982.MGPy8EG_Wmunu_FxFx_3jets_HT2bias_BFilter.deriv.DAOD_FTAG1.e8382_s3681_r13145_p5981
#mc20_13TeV.508982.MGPy8EG_Wmunu_FxFx_3jets_HT2bias_BFilter.deriv.DAOD_FTAG1.e8382_s3681_r13144_p5981
#mc20_13TeV.508983.MGPy8EG_Wmunu_FxFx_3jets_HT2bias_CFilterBVeto.deriv.DAOD_FTAG1.e8382_s3681_r13167_p5981
#mc20_13TeV.508983.MGPy8EG_Wmunu_FxFx_3jets_HT2bias_CFilterBVeto.deriv.DAOD_FTAG1.e8382_s3681_r13145_p5981
#mc20_13TeV.508983.MGPy8EG_Wmunu_FxFx_3jets_HT2bias_CFilterBVeto.deriv.DAOD_FTAG1.e8382_s3681_r13144_p5981
#mc20_13TeV.508984.MGPy8EG_Wmunu_FxFx_3jets_HT2bias_CVetoBVeto.deriv.DAOD_FTAG1.e8382_s3681_r13167_p5981
#mc20_13TeV.508984.MGPy8EG_Wmunu_FxFx_3jets_HT2bias_CVetoBVeto.deriv.DAOD_FTAG1.e8382_s3681_r13145_p5981
#mc20_13TeV.508984.MGPy8EG_Wmunu_FxFx_3jets_HT2bias_CVetoBVeto.deriv.DAOD_FTAG1.e8382_s3681_r13144_p5981
#mc20_13TeV.700320.Sh_2211_Zee_maxHTpTV2_BFilter.deriv.DAOD_FTAG1.e8351_s3681_r13144_p5981
#mc20_13TeV.700320.Sh_2211_Zee_maxHTpTV2_BFilter.deriv.DAOD_FTAG1.e8351_s3681_r13145_p5981
#mc20_13TeV.700320.Sh_2211_Zee_maxHTpTV2_BFilter.deriv.DAOD_FTAG1.e8351_s3681_r13167_p5981
#mc20_13TeV.700321.Sh_2211_Zee_maxHTpTV2_CFilterBVeto.deriv.DAOD_FTAG1.e8351_s3681_r13144_p5981
#mc20_13TeV.700321.Sh_2211_Zee_maxHTpTV2_CFilterBVeto.deriv.DAOD_FTAG1.e8351_s3681_r13145_p5981
#mc20_13TeV.700321.Sh_2211_Zee_maxHTpTV2_CFilterBVeto.deriv.DAOD_FTAG1.e8351_s3681_r13167_p5981
#mc20_13TeV.700323.Sh_2211_Zmumu_maxHTpTV2_BFilter.deriv.DAOD_FTAG1.e8351_s3681_r13144_p5981
#mc20_13TeV.700323.Sh_2211_Zmumu_maxHTpTV2_BFilter.deriv.DAOD_FTAG1.e8351_s3681_r13145_p5981
#mc20_13TeV.700323.Sh_2211_Zmumu_maxHTpTV2_BFilter.deriv.DAOD_FTAG1.e8351_s3681_r13167_p5981
#mc20_13TeV.700324.Sh_2211_Zmumu_maxHTpTV2_CFilterBVeto.deriv.DAOD_FTAG1.e8351_s3681_r13144_p5981
#mc20_13TeV.700324.Sh_2211_Zmumu_maxHTpTV2_CFilterBVeto.deriv.DAOD_FTAG1.e8351_s3681_r13145_p5981
#mc20_13TeV.700324.Sh_2211_Zmumu_maxHTpTV2_CFilterBVeto.deriv.DAOD_FTAG1.e8351_s3681_r13167_p5981
#mc20_13TeV.700338.Sh_2211_Wenu_maxHTpTV2_BFilter.deriv.DAOD_FTAG1.e8351_s3681_r13144_p5981
#mc20_13TeV.700338.Sh_2211_Wenu_maxHTpTV2_BFilter.deriv.DAOD_FTAG1.e8351_s3681_r13145_p5981
#mc20_13TeV.700338.Sh_2211_Wenu_maxHTpTV2_BFilter.deriv.DAOD_FTAG1.e8351_s3681_r13167_p5981
#mc20_13TeV.700339.Sh_2211_Wenu_maxHTpTV2_CFilterBVeto.deriv.DAOD_FTAG1.e8351_s3681_r13144_p5981
#mc20_13TeV.700339.Sh_2211_Wenu_maxHTpTV2_CFilterBVeto.deriv.DAOD_FTAG1.e8351_s3681_r13145_p5981
#mc20_13TeV.700339.Sh_2211_Wenu_maxHTpTV2_CFilterBVeto.deriv.DAOD_FTAG1.e8351_s3681_r13167_p5981
#mc20_13TeV.700340.Sh_2211_Wenu_maxHTpTV2_CVetoBVeto.deriv.DAOD_FTAG1.e8351_s3681_r13144_p5981
#mc20_13TeV.700340.Sh_2211_Wenu_maxHTpTV2_CVetoBVeto.deriv.DAOD_FTAG1.e8351_s3681_r13145_p5981
#mc20_13TeV.700340.Sh_2211_Wenu_maxHTpTV2_CVetoBVeto.deriv.DAOD_FTAG1.e8351_s3681_r13167_p5981
#mc20_13TeV.700341.Sh_2211_Wmunu_maxHTpTV2_BFilter.deriv.DAOD_FTAG1.e8351_s3681_r13144_p5981
#mc20_13TeV.700341.Sh_2211_Wmunu_maxHTpTV2_BFilter.deriv.DAOD_FTAG1.e8351_s3681_r13145_p5981
#mc20_13TeV.700341.Sh_2211_Wmunu_maxHTpTV2_BFilter.deriv.DAOD_FTAG1.e8351_s3681_r13167_p5981
#mc20_13TeV.700342.Sh_2211_Wmunu_maxHTpTV2_CFilterBVeto.deriv.DAOD_FTAG1.e8351_s3681_r13144_p5981
#mc20_13TeV.700342.Sh_2211_Wmunu_maxHTpTV2_CFilterBVeto.deriv.DAOD_FTAG1.e8351_s3681_r13145_p5981
#mc20_13TeV.700342.Sh_2211_Wmunu_maxHTpTV2_CFilterBVeto.deriv.DAOD_FTAG1.e8351_s3681_r13167_p5981
#mc20_13TeV.700343.Sh_2211_Wmunu_maxHTpTV2_CVetoBVeto.deriv.DAOD_FTAG1.e8351_s3681_r13144_p5981
#mc20_13TeV.700343.Sh_2211_Wmunu_maxHTpTV2_CVetoBVeto.deriv.DAOD_FTAG1.e8351_s3681_r13145_p5981
#mc20_13TeV.700343.Sh_2211_Wmunu_maxHTpTV2_CVetoBVeto.deriv.DAOD_FTAG1.e8351_s3681_r13167_p5981

#mc23_13p6TeV.513105.MGPy8EG_Zee_FxFx3jHT2bias_SW_BFilter.deriv.DAOD_FTAG1.e8514_s4162_r14622_p5981
#mc23_13p6TeV.513105.MGPy8EG_Zee_FxFx3jHT2bias_SW_BFilter.deriv.DAOD_FTAG1.e8514_s4159_r14799_p5981
#mc23_13p6TeV.513106.MGPy8EG_Zee_FxFx3jHT2bias_SW_CFilterBVeto.deriv.DAOD_FTAG1.e8514_s4162_r14622_p5981
#mc23_13p6TeV.513106.MGPy8EG_Zee_FxFx3jHT2bias_SW_CFilterBVeto.deriv.DAOD_FTAG1.e8514_s4159_r14799_p5981
#mc23_13p6TeV.513107.MGPy8EG_Zee_FxFx3jHT2bias_SW_CVetoBVeto.deriv.DAOD_FTAG1.e8514_s4162_r14622_p5981
#mc23_13p6TeV.513107.MGPy8EG_Zee_FxFx3jHT2bias_SW_CVetoBVeto.deriv.DAOD_FTAG1.e8514_s4159_r14799_p5981
#mc23_13p6TeV.513108.MGPy8EG_Zmumu_FxFx3jHT2bias_SW_BFilter.deriv.DAOD_FTAG1.e8514_s4162_r14622_p5981
#mc23_13p6TeV.513108.MGPy8EG_Zmumu_FxFx3jHT2bias_SW_BFilter.deriv.DAOD_FTAG1.e8514_s4159_r14799_p5981
#mc23_13p6TeV.513109.MGPy8EG_Zmumu_FxFx3jHT2bias_SW_CFilterBVeto.deriv.DAOD_FTAG1.e8514_s4162_r14622_p5981
#mc23_13p6TeV.513109.MGPy8EG_Zmumu_FxFx3jHT2bias_SW_CFilterBVeto.deriv.DAOD_FTAG1.e8514_s4159_r14799_p5981
#mc23_13p6TeV.513110.MGPy8EG_Zmumu_FxFx3jHT2bias_SW_CVetoBVeto.deriv.DAOD_FTAG1.e8514_s4162_r14622_p5981
#mc23_13p6TeV.513110.MGPy8EG_Zmumu_FxFx3jHT2bias_SW_CVetoBVeto.deriv.DAOD_FTAG1.e8514_s4159_r14799_p5981
#mc23_13p6TeV.513093.MGPy8EG_Wenu_FxFx3jHT2bias_SW_BFilter.deriv.DAOD_FTAG1.e8514_s4162_r14622_p5981
#mc23_13p6TeV.513093.MGPy8EG_Wenu_FxFx3jHT2bias_SW_BFilter.deriv.DAOD_FTAG1.e8514_s4159_r14799_p5981
#mc23_13p6TeV.513094.MGPy8EG_Wenu_FxFx3jHT2bias_SW_CFilterBVeto.deriv.DAOD_FTAG1.e8514_s4162_r14622_p5981
#mc23_13p6TeV.513094.MGPy8EG_Wenu_FxFx3jHT2bias_SW_CFilterBVeto.deriv.DAOD_FTAG1.e8514_s4159_r14799_p5981
#mc23_13p6TeV.513095.MGPy8EG_Wenu_FxFx3jHT2bias_SW_CVetoBVeto.deriv.DAOD_FTAG1.e8514_s4162_r14622_p5981
#mc23_13p6TeV.513095.MGPy8EG_Wenu_FxFx3jHT2bias_SW_CVetoBVeto.deriv.DAOD_FTAG1.e8514_s4159_r14799_p5981
#mc23_13p6TeV.513096.MGPy8EG_Wmunu_FxFx3jHT2bias_SW_BFilter.deriv.DAOD_FTAG1.e8514_s4162_r14622_p5981
#mc23_13p6TeV.513096.MGPy8EG_Wmunu_FxFx3jHT2bias_SW_BFilter.deriv.DAOD_FTAG1.e8514_s4159_r14799_p5981
#mc23_13p6TeV.513097.MGPy8EG_Wmunu_FxFx3jHT2bias_SW_CFilterBVeto.deriv.DAOD_FTAG1.e8514_s4162_r14622_p5981
#mc23_13p6TeV.513097.MGPy8EG_Wmunu_FxFx3jHT2bias_SW_CFilterBVeto.deriv.DAOD_FTAG1.e8514_s4159_r14799_p5981
#mc23_13p6TeV.513098.MGPy8EG_Wmunu_FxFx3jHT2bias_SW_CVetoBVeto.deriv.DAOD_FTAG1.e8514_s4162_r14622_p5981
#mc23_13p6TeV.513098.MGPy8EG_Wmunu_FxFx3jHT2bias_SW_CVetoBVeto.deriv.DAOD_FTAG1.e8514_s4159_r14799_p5981
#mc23_13p6TeV.700786.Sh_2214_Zee_maxHTpTV2_BFilter.deriv.DAOD_FTAG1.e8514_s4162_r14622_p5981
#mc23_13p6TeV.700786.Sh_2214_Zee_maxHTpTV2_BFilter.deriv.DAOD_FTAG1.e8514_s4159_r14799_p5981
#mc23_13p6TeV.700787.Sh_2214_Zee_maxHTpTV2_CFilterBVeto.deriv.DAOD_FTAG1.e8514_s4162_r14622_p5981
#mc23_13p6TeV.700787.Sh_2214_Zee_maxHTpTV2_CFilterBVeto.deriv.DAOD_FTAG1.e8514_s4159_r14799_p5981
#mc23_13p6TeV.700788.Sh_2214_Zee_maxHTpTV2_CVetoBVeto.deriv.DAOD_FTAG1.e8514_s4162_r14622_p5981
#mc23_13p6TeV.700788.Sh_2214_Zee_maxHTpTV2_CVetoBVeto.deriv.DAOD_FTAG1.e8514_s4159_r14799_p5981
#mc23_13p6TeV.700789.Sh_2214_Zmumu_maxHTpTV2_BFilter.deriv.DAOD_FTAG1.e8514_s4162_r14622_p5981
#mc23_13p6TeV.700789.Sh_2214_Zmumu_maxHTpTV2_BFilter.deriv.DAOD_FTAG1.e8514_s4159_r14799_p5981
#mc23_13p6TeV.700790.Sh_2214_Zmumu_maxHTpTV2_CFilterBVeto.deriv.DAOD_FTAG1.e8514_s4162_r14622_p5981
#mc23_13p6TeV.700790.Sh_2214_Zmumu_maxHTpTV2_CFilterBVeto.deriv.DAOD_FTAG1.e8514_s4159_r14799_p5981
#mc23_13p6TeV.700791.Sh_2214_Zmumu_maxHTpTV2_CVetoBVeto.deriv.DAOD_FTAG1.e8514_s4162_r14622_p5981
#mc23_13p6TeV.700791.Sh_2214_Zmumu_maxHTpTV2_CVetoBVeto.deriv.DAOD_FTAG1.e8514_s4159_r14799_p5981
#mc23_13p6TeV.700777.Sh_2214_Wenu_maxHTpTV2_BFilter.deriv.DAOD_FTAG1.e8514_s4162_r14622_p5981
#mc23_13p6TeV.700777.Sh_2214_Wenu_maxHTpTV2_BFilter.deriv.DAOD_FTAG1.e8514_s4159_r14799_p5981
#mc23_13p6TeV.700778.Sh_2214_Wenu_maxHTpTV2_CFilterBVeto.deriv.DAOD_FTAG1.e8514_s4162_r14622_p5981
#mc23_13p6TeV.700778.Sh_2214_Wenu_maxHTpTV2_CFilterBVeto.deriv.DAOD_FTAG1.e8514_s4159_r14799_p5981
#mc23_13p6TeV.700779.Sh_2214_Wenu_maxHTpTV2_CVetoBVeto.deriv.DAOD_FTAG1.e8514_s4162_r14622_p5981
#mc23_13p6TeV.700779.Sh_2214_Wenu_maxHTpTV2_CVetoBVeto.deriv.DAOD_FTAG1.e8514_s4159_r14799_p5981
#mc23_13p6TeV.700780.Sh_2214_Wmunu_maxHTpTV2_BFilter.deriv.DAOD_FTAG1.e8514_s4162_r14622_p5981
#mc23_13p6TeV.700780.Sh_2214_Wmunu_maxHTpTV2_BFilter.deriv.DAOD_FTAG1.e8514_s4159_r14799_p5981
#mc23_13p6TeV.700781.Sh_2214_Wmunu_maxHTpTV2_CFilterBVeto.deriv.DAOD_FTAG1.e8514_s4162_r14622_p5981
#mc23_13p6TeV.700781.Sh_2214_Wmunu_maxHTpTV2_CFilterBVeto.deriv.DAOD_FTAG1.e8514_s4159_r14799_p5981
#mc23_13p6TeV.700782.Sh_2214_Wmunu_maxHTpTV2_CVetoBVeto.deriv.DAOD_FTAG1.e8514_s4162_r14622_p5981
#mc23_13p6TeV.700782.Sh_2214_Wmunu_maxHTpTV2_CVetoBVeto.deriv.DAOD_FTAG1.e8514_s4159_r14799_p5981

###################
#Dijet with pythia shower weights
###################
#mc23_13p6TeV.801165.Py8EG_A14NNPDF23LO_jj_JZ0.deriv.DAOD_FTAG1.e8514_s4162_r14622_p5981
#mc23_13p6TeV.801165.Py8EG_A14NNPDF23LO_jj_JZ0.deriv.DAOD_FTAG1.e8514_s4159_r14799_p5981
#mc23_13p6TeV.801166.Py8EG_A14NNPDF23LO_jj_JZ1.deriv.DAOD_FTAG1.e8514_s4162_r14622_p5981
#mc23_13p6TeV.801166.Py8EG_A14NNPDF23LO_jj_JZ1.deriv.DAOD_FTAG1.e8514_s4159_r14799_p5981
#mc23_13p6TeV.801167.Py8EG_A14NNPDF23LO_jj_JZ2.deriv.DAOD_FTAG1.e8514_s4162_r14622_p5981
#mc23_13p6TeV.801167.Py8EG_A14NNPDF23LO_jj_JZ2.deriv.DAOD_FTAG1.e8514_s4159_r14799_p5981
#mc23_13p6TeV.801168.Py8EG_A14NNPDF23LO_jj_JZ3.deriv.DAOD_FTAG1.e8514_s4162_r14622_p5981
#mc23_13p6TeV.801168.Py8EG_A14NNPDF23LO_jj_JZ3.deriv.DAOD_FTAG1.e8514_s4159_r14799_p5981
#mc23_13p6TeV.801169.Py8EG_A14NNPDF23LO_jj_JZ4.deriv.DAOD_FTAG1.e8514_s4162_r14622_p5981
#mc23_13p6TeV.801169.Py8EG_A14NNPDF23LO_jj_JZ4.deriv.DAOD_FTAG1.e8514_s4159_r14799_p5981
#mc23_13p6TeV.801170.Py8EG_A14NNPDF23LO_jj_JZ5.deriv.DAOD_FTAG1.e8514_s4162_r14622_p5981
#mc23_13p6TeV.801170.Py8EG_A14NNPDF23LO_jj_JZ5.deriv.DAOD_FTAG1.e8514_s4159_r14799_p5981
#mc23_13p6TeV.801171.Py8EG_A14NNPDF23LO_jj_JZ6.deriv.DAOD_FTAG1.e8514_s4162_r14622_p5981
#mc23_13p6TeV.801171.Py8EG_A14NNPDF23LO_jj_JZ6.deriv.DAOD_FTAG1.e8514_s4159_r14799_p5981
#mc23_13p6TeV.801172.Py8EG_A14NNPDF23LO_jj_JZ7.deriv.DAOD_FTAG1.e8514_s4162_r14622_p5981
#mc23_13p6TeV.801172.Py8EG_A14NNPDF23LO_jj_JZ7.deriv.DAOD_FTAG1.e8514_s4159_r14799_p5981
#mc23_13p6TeV.801173.Py8EG_A14NNPDF23LO_jj_JZ8.deriv.DAOD_FTAG1.e8514_s4162_r14622_p5981
#mc23_13p6TeV.801173.Py8EG_A14NNPDF23LO_jj_JZ8.deriv.DAOD_FTAG1.e8514_s4159_r14799_p5981
#mc23_13p6TeV.801174.Py8EG_A14NNPDF23LO_jj_JZ9incl.deriv.DAOD_FTAG1.e8514_s4162_r14622_p5981
#mc23_13p6TeV.801174.Py8EG_A14NNPDF23LO_jj_JZ9incl.deriv.DAOD_FTAG1.e8514_s4159_r14799_p5981

#mc20_13TeV.364700.Pythia8EvtGen_A14NNPDF23LO_jetjet_JZ0WithSW.deriv.DAOD_FTAG1.e7142_s3681_r13167_p5981
#mc20_13TeV.364700.Pythia8EvtGen_A14NNPDF23LO_jetjet_JZ0WithSW.deriv.DAOD_FTAG1.e7142_s3681_r13144_p5981
#mc20_13TeV.364700.Pythia8EvtGen_A14NNPDF23LO_jetjet_JZ0WithSW.deriv.DAOD_FTAG1.e7142_s3681_r13145_p5981
#mc20_13TeV.364701.Pythia8EvtGen_A14NNPDF23LO_jetjet_JZ1WithSW.deriv.DAOD_FTAG1.e7142_s3681_r13167_p5981
#mc20_13TeV.364701.Pythia8EvtGen_A14NNPDF23LO_jetjet_JZ1WithSW.deriv.DAOD_FTAG1.e7142_s3681_r13144_p5981
#mc20_13TeV.364701.Pythia8EvtGen_A14NNPDF23LO_jetjet_JZ1WithSW.deriv.DAOD_FTAG1.e7142_s3681_r13145_p5981
#mc20_13TeV.364702.Pythia8EvtGen_A14NNPDF23LO_jetjet_JZ2WithSW.deriv.DAOD_FTAG1.e7142_s3681_r13167_p5981
#mc20_13TeV.364702.Pythia8EvtGen_A14NNPDF23LO_jetjet_JZ2WithSW.deriv.DAOD_FTAG1.e7142_s3681_r13144_p5981
#mc20_13TeV.364702.Pythia8EvtGen_A14NNPDF23LO_jetjet_JZ2WithSW.deriv.DAOD_FTAG1.e7142_s3681_r13145_p5981
#mc20_13TeV.364703.Pythia8EvtGen_A14NNPDF23LO_jetjet_JZ3WithSW.deriv.DAOD_FTAG1.e7142_s3681_r13167_p5981
#mc20_13TeV.364703.Pythia8EvtGen_A14NNPDF23LO_jetjet_JZ3WithSW.deriv.DAOD_FTAG1.e7142_s3681_r13144_p5981
#mc20_13TeV.364703.Pythia8EvtGen_A14NNPDF23LO_jetjet_JZ3WithSW.deriv.DAOD_FTAG1.e7142_s3681_r13145_p5981
#mc20_13TeV.364704.Pythia8EvtGen_A14NNPDF23LO_jetjet_JZ4WithSW.deriv.DAOD_FTAG1.e7142_s3681_r13167_p5981
#mc20_13TeV.364704.Pythia8EvtGen_A14NNPDF23LO_jetjet_JZ4WithSW.deriv.DAOD_FTAG1.e7142_s3681_r13144_p5981
#mc20_13TeV.364704.Pythia8EvtGen_A14NNPDF23LO_jetjet_JZ4WithSW.deriv.DAOD_FTAG1.e7142_s3681_r13145_p5981
#mc20_13TeV.364705.Pythia8EvtGen_A14NNPDF23LO_jetjet_JZ5WithSW.deriv.DAOD_FTAG1.e7142_s3681_r13167_p5981
#mc20_13TeV.364705.Pythia8EvtGen_A14NNPDF23LO_jetjet_JZ5WithSW.deriv.DAOD_FTAG1.e7142_s3681_r13144_p5981
#mc20_13TeV.364705.Pythia8EvtGen_A14NNPDF23LO_jetjet_JZ5WithSW.deriv.DAOD_FTAG1.e7142_s3681_r13145_p5981
#mc20_13TeV.364706.Pythia8EvtGen_A14NNPDF23LO_jetjet_JZ6WithSW.deriv.DAOD_FTAG1.e7142_s3681_r13167_p5981
#mc20_13TeV.364706.Pythia8EvtGen_A14NNPDF23LO_jetjet_JZ6WithSW.deriv.DAOD_FTAG1.e7142_s3681_r13144_p5981
#mc20_13TeV.364706.Pythia8EvtGen_A14NNPDF23LO_jetjet_JZ6WithSW.deriv.DAOD_FTAG1.e7142_s3681_r13145_p5981
#mc20_13TeV.364707.Pythia8EvtGen_A14NNPDF23LO_jetjet_JZ7WithSW.deriv.DAOD_FTAG1.e7142_s3681_r13167_p5981
#mc20_13TeV.364707.Pythia8EvtGen_A14NNPDF23LO_jetjet_JZ7WithSW.deriv.DAOD_FTAG1.e7142_s3681_r13144_p5981
#mc20_13TeV.364707.Pythia8EvtGen_A14NNPDF23LO_jetjet_JZ7WithSW.deriv.DAOD_FTAG1.e7142_s3681_r13145_p5981
#mc20_13TeV.364708.Pythia8EvtGen_A14NNPDF23LO_jetjet_JZ8WithSW.deriv.DAOD_FTAG1.e7142_s3681_r13167_p5981
#mc20_13TeV.364708.Pythia8EvtGen_A14NNPDF23LO_jetjet_JZ8WithSW.deriv.DAOD_FTAG1.e7142_s3681_r13144_p5981
#mc20_13TeV.364708.Pythia8EvtGen_A14NNPDF23LO_jetjet_JZ8WithSW.deriv.DAOD_FTAG1.e7142_s3681_r13145_p5981
#mc20_13TeV.364709.Pythia8EvtGen_A14NNPDF23LO_jetjet_JZ9WithSW.deriv.DAOD_FTAG1.e7142_s3681_r13167_p5981
#mc20_13TeV.364709.Pythia8EvtGen_A14NNPDF23LO_jetjet_JZ9WithSW.deriv.DAOD_FTAG1.e7142_s3681_r13144_p5981
#mc20_13TeV.364709.Pythia8EvtGen_A14NNPDF23LO_jetjet_JZ9WithSW.deriv.DAOD_FTAG1.e7142_s3681_r13145_p5981
#mc20_13TeV.364710.Pythia8EvtGen_A14NNPDF23LO_jetjet_JZ10WithSW.deriv.DAOD_FTAG1.e7142_s3681_r13167_p5981
#mc20_13TeV.364710.Pythia8EvtGen_A14NNPDF23LO_jetjet_JZ10WithSW.deriv.DAOD_FTAG1.e7142_s3681_r13144_p5981
#mc20_13TeV.364710.Pythia8EvtGen_A14NNPDF23LO_jetjet_JZ10WithSW.deriv.DAOD_FTAG1.e7142_s3681_r13145_p5981
#mc20_13TeV.364711.Pythia8EvtGen_A14NNPDF23LO_jetjet_JZ11WithSW.deriv.DAOD_FTAG1.e7142_s3681_r13167_p5981
#mc20_13TeV.364711.Pythia8EvtGen_A14NNPDF23LO_jetjet_JZ11WithSW.deriv.DAOD_FTAG1.e7142_s3681_r13144_p5981
#mc20_13TeV.364711.Pythia8EvtGen_A14NNPDF23LO_jetjet_JZ11WithSW.deriv.DAOD_FTAG1.e7142_s3681_r13145_p5981
